C:\USERS\FRANK DYE\DESKTOP\PROGRAMMING PROJECTS\HW5\QUESTION1\DEBUG\LIST.OBJ
C:\USERS\FRANK DYE\DESKTOP\PROGRAMMING PROJECTS\HW5\QUESTION1\DEBUG\TESTLIST.OBJ
C:\USERS\FRANK DYE\DESKTOP\PROGRAMMING PROJECTS\HW5\QUESTION1\DEBUG\VC110.PDB
C:\USERS\FRANK DYE\DESKTOP\PROGRAMMING PROJECTS\HW5\DEBUG\QUESTION1.ILK
C:\USERS\FRANK DYE\DESKTOP\PROGRAMMING PROJECTS\HW5\DEBUG\QUESTION1.EXE
C:\USERS\FRANK DYE\DESKTOP\PROGRAMMING PROJECTS\HW5\DEBUG\QUESTION1.PDB
C:\Users\Frank Dye\Desktop\Programming Projects\HW5\Question1\Debug\list.obj
C:\Users\Frank Dye\Desktop\Programming Projects\HW5\Question1\Debug\testList.obj
C:\Users\Frank Dye\Desktop\Programming Projects\HW5\Question1\Debug\cl.command.1.tlog
C:\Users\Frank Dye\Desktop\Programming Projects\HW5\Question1\Debug\CL.read.1.tlog
C:\Users\Frank Dye\Desktop\Programming Projects\HW5\Question1\Debug\CL.write.1.tlog
C:\Users\Frank Dye\Desktop\Programming Projects\HW5\Question1\Debug\link-cvtres.read.1.tlog
C:\Users\Frank Dye\Desktop\Programming Projects\HW5\Question1\Debug\link-cvtres.write.1.tlog
C:\Users\Frank Dye\Desktop\Programming Projects\HW5\Question1\Debug\link-rc.read.1.tlog
C:\Users\Frank Dye\Desktop\Programming Projects\HW5\Question1\Debug\link-rc.write.1.tlog
C:\Users\Frank Dye\Desktop\Programming Projects\HW5\Question1\Debug\link.command.1.tlog
C:\Users\Frank Dye\Desktop\Programming Projects\HW5\Question1\Debug\link.read.1.tlog
C:\Users\Frank Dye\Desktop\Programming Projects\HW5\Question1\Debug\link.write.1.tlog
C:\Users\Frank Dye\Desktop\Programming Projects\HW5\Question1\Debug\vc110.idb
C:\Users\Frank Dye\Desktop\Programming Projects\HW5\Question1\Debug\vc110.pdb
C:\Users\Frank Dye\Desktop\Programming Projects\HW5\Debug\Question1.pdb
C:\Users\Frank Dye\Desktop\Programming Projects\HW5\Debug\Question1.exe
C:\Users\Frank Dye\Desktop\Programming Projects\HW5\Debug\Question1.ilk
